<svg xmlns="http://www.w3.org/2000/svg" width="110" height="110" viewBox="0 0 110 110">
    <defs>
        <linearGradient id="a" x1="0%" y1="50%" y2="50%">
            <stop offset="0%" stop-color="#7A3183"/>
            <stop offset="100%" stop-color="#0E6FC9"/>
        </linearGradient>
    </defs>
    <path fill="url(#a)" fill-rule="evenodd" d="M54.973 1c30.361 0 54.973 24.611 54.973 54.972s-24.612 54.973-54.973 54.973S0 86.334 0 55.973 24.612.998 54.973.998zm0 107.02c28.745 0 52.048-23.302 52.048-52.047 0-28.745-23.303-52.047-52.048-52.047S2.926 27.226 2.926 55.971s23.302 52.048 52.047 52.048zM43.201 18.472v12.863h42.544v12.4h-6.29V62.83h3v12h-1.579a6.246 6.246 0 0 0-.62 2.294c-.16 2.27 1.006 3.934 1.397 4.448a3.067 3.067 0 0 1 .215 2.267c-.92 1.83-2.739 3.002-4.68 3-2.374-.003-4.543-1.759-5.12-4.27-.053-.258.09-.5.3-.565a.46.46 0 0 1 .451.13c1.01 1.843 2.86 2.596 4.15 2.063.65-.269 1.422-.976 1.407-1.747-.027-1.287-2.254-2.922-2.977-3.453-.062-.046-.27-.194-.413-.466a1.328 1.328 0 0 1-.143-.526V74.83h-1.389v-12h3V43.735H43.201v49.737h-19v-75h19zm6.68 15.874H43.2v4.12l6.68-4.12zM59 40.732l-6.955-4.288-6.916 4.288h13.871zm13.13-6.386H54.215l9.016 5.488 8.9-5.488zm7.565 6.386L73.58 36.96l-6.198 3.772h12.315zm3.03-6.386H74.91l7.816 4.757v-4.757zm-6.282 37.5h2.983v-6.048h-2.983v6.048zm-36.243-46.1v-4.274h-6.93l6.93 4.274zm0 64.726v-4.596l-7.454 4.596h7.454zm-13-14.677v14.6l11.817-7.314-11.817-7.286zm12.996-8.457L29.7 73.811l10.498 6.473V67.338zm-13.004 4.506l11.834-7.297-11.834-7.298v14.595zm13.004-22.506L30.138 55.54l10.06 6.203V49.338zM27.193 39.25v14.583l11.825-7.292-11.825-7.29zm13.004 4.486V31.338L30.137 37.54l10.06 6.203v-.008zM27.193 21.472v14.36l11.825-7.292-11.463-7.068h-.362z" transform="translate(0 -1)"/>
</svg>
