<svg xmlns="http://www.w3.org/2000/svg" width="110" height="110" viewBox="0 0 110 110">
    <defs>
        <linearGradient id="a" x1="0%" y1="50%" y2="50%">
            <stop offset="0%" stop-color="#7A3183"/>
            <stop offset="100%" stop-color="#0E6FC9"/>
        </linearGradient>
    </defs>
    <path fill="url(#a)" fill-rule="evenodd" d="M54.973 1c30.36 0 54.974 24.612 54.974 54.973s-24.613 54.973-54.974 54.973C24.613 110.946 0 86.334 0 55.973 0 25.613 24.613 1 54.973 1zM39.888 62.205c0 8.284-6.716 15-15 15-8.285 0-15-6.716-15-15 0-8.285 6.715-15 15-15 8.284 0 15 6.715 15 15zm-15 12.052c6.63 0 12.003-5.375 12.003-12.003 0-6.63-5.374-12.004-12.003-12.004-6.63 0-12.004 5.374-12.004 12.004 0 6.628 5.374 12.003 12.004 12.003zm2.776 25.955a48.956 48.956 0 0 1-1.316-.844 59.134 59.134 0 0 0 9.955-1.598l3.029 7.33 4.392-1.818-3.06-7.48a35.996 35.996 0 0 0 8.723-5.513l5.586 5.512 3.5-3.362-5.572-5.573a68.445 68.445 0 0 0 5.179-7.602l7.179 3.09 1.938-4.423-7.241-3.16c.43-1.35.838-2.839 1.187-4.457.443-2.043.715-3.947.878-5.663h7.95l-.001-4.82-7.911-.012a53.882 53.882 0 0 0-1.738-9.006l7.388-2.919-1.78-4.503c-2.456.976-4.912 1.954-7.37 2.93a48.081 48.081 0 0 0-5.674-8.657l5.576-5.59a5487.977 5487.977 0 0 1-3.41-3.415l-5.6 5.58a58.224 58.224 0 0 0-7.514-5.132l3.09-7.287c-1.478-.64-2.957-1.278-4.436-1.917l-3.15 7.276a46.778 46.778 0 0 0-10.147-2.083l.003-7.943-4.824.002-.01 7.914a40.481 40.481 0 0 0-11.107 2.587 46.31 46.31 0 0 0-1.103 1.726C8.24 32.697 6.87 36.06 6.285 37.577c0 0-3.286 9.338-3.303 18.396-.002.68.013 1.59.067 2.655-.005-.1-.003-.202-.007-.302.009.2.017.397.029.606-.005-.085-.015-.169-.02-.255.012.215.022.428.037.655.018.285.047.56.07.84a52.583 52.583 0 0 0 .038.406c-.007-.077-.017-.149-.023-.225.006.073.017.155.024.23l-.001-.006c.05.55.107 1.094.17 1.628-.001-.02-.004-.039-.007-.059.008.06.013.117.02.178.014.114.03.225.047.34l-.024-.178c.037.293.088.605.13.906a51.897 51.897 0 0 0 1.656 7.517 52.902 52.902 0 0 0 .014.044 51.675 51.675 0 0 0 2.462 6.576c-.076-.166-.153-.333-.227-.5.124.282.246.556.365.811-.05-.104-.091-.207-.138-.31.079.171.153.344.233.515l-.002-.004.003.006-.001-.002c.192.41.399.823.605 1.235-.067-.133-.138-.264-.203-.397a41.506 41.506 0 0 0 .828 1.618c-.057-.107-.11-.217-.166-.325.197.374.397.745.6 1.108-.027-.049-.056-.097-.084-.145.077.137.145.263.227.407-.05-.085-.095-.176-.143-.262.383.685.78 1.361 1.193 2.026.156.25.314.495.472.741-.15-.233-.302-.464-.448-.7.213.344.44.7.682 1.065.08.125.16.256.244.38-.064-.095-.123-.194-.187-.29.186.281.379.568.58.861.059.083.116.167.173.25l.032.043c.185.268.373.53.56.79.327.45.678.912 1.04 1.38a52.416 52.416 0 0 0 3.07 3.608c-.134-.144-.276-.283-.41-.429a52.7 52.7 0 0 0 9.716 8.367l.066-.006c.453.3.892.578 1.32.843zm3.04 1.74a51.911 51.911 0 0 0 4.996 2.306l-1.204-3.042c-.578.142-1.186.276-1.82.401a40.56 40.56 0 0 1-1.972.334c-.088-.046-.178-.089-.265-.136l.253.137h.012zM15.678 21.946c-.45.52-.88 1.035-1.29 1.546a41.079 41.079 0 0 1 5.079-1.036V18.01c.106-.099.209-.2.315-.299-.104.094-.214.19-.314.282v.017a51.976 51.976 0 0 0-3.79 3.937zM83.45 99.478c.149-.098.318-.21.495-.332-.165.112-.336.214-.503.323l-1.538-1.808 4.913-4.179a30.422 30.422 0 0 1-2.066-3.78l-6.175 1.886-2.456-8.043 6.163-1.945a33.157 33.157 0 0 1-.354-3.229l-6.42-.517.675-8.382 6.425.517a30.395 30.395 0 0 1 1.21-4.129l-5.7-3.033 3.95-7.424 5.7 3.032a33.343 33.343 0 0 1 2.073-2.587l-4.173-4.905 6.404-5.45 4.177 4.91a28.97 28.97 0 0 1 2.122-1.246 29.425 29.425 0 0 1 1.648-.815l-1.885-6.174 6.39-1.953c.026.076.054.15.077.226l-.07-.228-.006.002C97.85 19.206 78.193 3.981 54.973 3.981a51.747 51.747 0 0 0-30.891 10.176h-.01c-.037.028-.075.06-.112.087.04-.03.082-.057.122-.087h6.213v8.304a38.057 38.057 0 0 1 5.429 1.127l3.302-7.628 9.937 4.302-3.237 7.666a42.703 42.703 0 0 1 3.462 2.348l5.865-5.864 7.655 7.656-5.867 5.867a41.562 41.562 0 0 1 3.039 4.632l7.728-3.058 3.984 10.067-7.73 3.06a39.159 39.159 0 0 1 .81 4.19h8.29v10.826h-8.297c-.112.836-.26 1.722-.45 2.652a39.087 39.087 0 0 1-.676 2.764l7.628 3.302-4.302 9.936-7.625-3.3a41.024 41.024 0 0 1-2.398 3.538l5.866 5.866-7.655 7.656-5.874-5.872a38.774 38.774 0 0 1-4.579 3.008l3.019 7.75-4.274 1.69-.113-.025-.113-.027.2.063.026-.01a52.116 52.116 0 0 0 11.628 1.321c10.513 0 20.29-3.13 28.47-8.495l.008.01zm23.33-39.318c.004-.038.01-.077.012-.115-.002.035-.007.073-.01.11.109-1.382.182-2.773.182-4.182 0-.627-.026-1.247-.047-1.868 0 .038.004.074.006.113l-.008-.19a53.717 53.717 0 0 0-.529-5.71l.02.063c.1.69.19 1.381.265 2.078a50.544 50.544 0 0 0-.25-2.027c-.004-.017-.01-.034-.015-.05a51.765 51.765 0 0 0-.671-3.633c.234 1.075.46 2.266.65 3.57-.588-1.896-1.177-3.79-1.767-5.686l-3.587 1.087 1.808 5.861a35.631 35.631 0 0 0-7.045 3.873l-4.01-4.669-2.828 2.431c1.325 1.554 2.65 3.11 3.977 4.663a39.133 39.133 0 0 0-4.44 5.545l-5.47-2.872-1.772 3.316 5.467 2.881a37.368 37.368 0 0 0-2.258 7.711l-6.151-.476-.297 3.744 6.136.49a38.373 38.373 0 0 0 .773 7.012l-5.9 1.872 1.115 3.595 5.869-1.812a36.039 36.039 0 0 0 3.863 7.026l-4.681 4.013c.06.072.12.145.182.217-.393.283-.783.57-1.183.841.356-.244.75-.522 1.185-.838l.007.008c.214-.154.443-.324.678-.5-.177.133-.364.256-.544.386 3.949-2.894 10.804-8.81 15.732-18.367-.132.257-.26.516-.395.771.165-.31.326-.632.487-.95.303-.596.598-1.208.886-1.832-.086.187-.166.376-.253.562.066-.14.137-.272.203-.415.219-.476.427-.949.627-1.42-.113.262-.237.52-.354.78.247-.55.487-1.11.72-1.683-.04.096-.075.194-.115.29.08-.195.164-.39.24-.585-.04.1-.085.195-.125.295.406-1.004.78-2.023 1.125-3.056l-.04.122c.074-.218.159-.42.229-.64.033-.104.06-.204.089-.305a50.72 50.72 0 0 0 .918-3.328c-.01.04-.017.08-.026.118l.03-.14c.004-.01.005-.02.008-.03.215-.89.39-1.762.553-2.628l-.008.042c.023-.126.055-.249.078-.376-.02.11-.05.224-.07.334.047-.256.09-.51.134-.763.126-.734.239-1.47.333-2.215.108-.84.2-1.669.264-2.465l-.001.006z" transform="translate(0 -1)"/>
</svg>
